element 113 - l-optimized DZ basis
1 19 1
1s
2s
2p
3s
3p
3d
4s
4p
4d
4f
5s
5p
5d
5f
6s
6p
6d
7s 2
7p 1
ANG 7
-1
MCP 8 9
MCDF 11
9 0 0 0 10
113 287.0
NUC 3
SCF NITIT=6 CON=1.0E0
GAUSS 4 CONTROL FILE
FILE ORBOUT 15
CONTROL CNVVEC 6.2
1s  26
2p- 23 INPUT 23
2p  23 2p- 1 23
3d- 16 INPUT 16
3d  16 3d- 1 16
4f- 10 INPUT 10
4f  10 4f- 1 10
5.265642072E+07   1.398668173E+07   4.744225153E+06   1.773651781E+06
7.211584750E+05   3.072954606E+05   1.361714165E+05   6.186190016E+04
2.870767672E+04   1.354593172E+04   6.493475213E+03   3.160915774E+03
1.566402942E+03   7.828926638E+02   4.032058295E+02   2.129754819E+02
1.130317381E+02   6.157486221E+01   3.081682545E+01   1.745962073E+01
8.406496322E+00   4.569965531E+00   1.838611962E+00   8.939622677E-01
2.577221550E-01   9.512584750E-02
4.229507716E+07   1.141955059E+07   3.385481418E+06   1.077807478E+06
3.626176904E+05   1.278139940E+05   4.700831502E+04   1.803351286E+04
7.236424880E+03   3.047220410E+03   1.346097801E+03   6.212385772E+02
2.974547576E+02   1.444719950E+02   7.281587369E+01   3.559708607E+01
1.847008238E+01   8.782215331E+00   4.364365927E+00   1.807522394E+00
7.635699789E-01   2.235716213E-01   5.494900450E-02
5.139188102E+04   1.215627481E+04   3.972026569E+03   1.553402513E+03
6.804362135E+02   3.219877107E+02   1.600788432E+02   8.229169547E+01
4.263535587E+01   2.234970892E+01   1.166226200E+01   5.953952373E+00
2.940992133E+00   1.282899982E+00   5.318130871E-01   1.946401187E-01
1.424804508E+03   4.735984924E+02   1.985441055E+02   9.228016323E+01
4.523210419E+01   2.271190558E+01   1.138109376E+01   5.546411754E+00
2.573192362E+00   1.061568660E+00
AL
END
